data18_13TeV:data18_13TeV.00348354.physics_Background.merge.DAOD_IDNCB.f920_m1950
data18_13TeV:data18_13TeV.00348534.physics_Background.merge.DAOD_IDNCB.f921_m1950
data18_13TeV:data18_13TeV.00348709.physics_Background.merge.DAOD_IDNCB.f921_m1950
data18_13TeV:data18_13TeV.00348353.physics_Background.merge.DAOD_IDNCB.f920_m1950
data18_13TeV:data18_13TeV.00348618.physics_Background.merge.DAOD_IDNCB.f921_m1950
data18_13TeV:data18_13TeV.00348448.physics_Background.merge.DAOD_IDNCB.f920_m1950
data18_13TeV:data18_13TeV.00348609.physics_Background.merge.DAOD_IDNCB.f921_m1950
data18_13TeV:data18_13TeV.00348403.physics_Background.merge.DAOD_IDNCB.f920_m1950
data18_13TeV:data18_13TeV.00348154.physics_Background.merge.DAOD_IDNCB.f920_m1950
data18_13TeV:data18_13TeV.00348836.physics_Background.merge.DAOD_IDNCB.f921_m1950
data18_13TeV:data18_13TeV.00348495.physics_Background.merge.DAOD_IDNCB.f920_m1950
data18_13TeV:data18_13TeV.00348583.physics_Background.merge.DAOD_IDNCB.f921_m1950
data18_13TeV:data18_13TeV.00348511.physics_Background.merge.DAOD_IDNCB.f920_m1950
data18_13TeV:data18_13TeV.00348610.physics_Background.merge.DAOD_IDNCB.f921_m1950
data18_13TeV:data18_13TeV.00348440.physics_Background.merge.DAOD_IDNCB.f920_m1950
data18_13TeV:data18_13TeV.00348231.physics_Background.merge.DAOD_IDNCB.f920_m1950
data18_13TeV:data18_13TeV.00348197.physics_Background.merge.DAOD_IDNCB.f920_m1950
data18_13TeV:data18_13TeV.00348251.physics_Background.merge.DAOD_IDNCB.f920_m1950
data18_13TeV:data18_13TeV.00348835.physics_Background.merge.DAOD_IDNCB.f921_m1950
data18_13TeV:data18_13TeV.00348490.physics_Background.merge.DAOD_IDNCB.f920_m1950
data18_13TeV:data18_13TeV.00349111.physics_Background.merge.DAOD_IDNCB.f926_m1958
data18_13TeV:data18_13TeV.00349051.physics_Background.merge.DAOD_IDNCB.f926_m1958
data18_13TeV:data18_13TeV.00349109.physics_Background.merge.DAOD_IDNCB.f926_m1958
data18_13TeV:data18_13TeV.00348885.physics_Background.merge.DAOD_IDNCB.f921_m1950
data18_13TeV:data18_13TeV.00348895.physics_Background.merge.DAOD_IDNCB.f921_m1958
data18_13TeV:data18_13TeV.00349014.physics_Background.merge.DAOD_IDNCB.f926_m1958
data18_13TeV:data18_13TeV.00349159.physics_Background.merge.DAOD_IDNCB.f926_m1958
data18_13TeV:data18_13TeV.00349326.physics_Background.merge.DAOD_IDNCB.f929_m1958
data18_13TeV:data18_13TeV.00349011.physics_Background.merge.DAOD_IDNCB.f926_m1958
data18_13TeV:data18_13TeV.00348894.physics_Background.merge.DAOD_IDNCB.f921_m1958
data18_13TeV:data18_13TeV.00349169.physics_Background.merge.DAOD_IDNCB.f927_m1958
data18_13TeV:data18_13TeV.00349167.physics_Background.merge.DAOD_IDNCB.f926_m1958
data18_13TeV:data18_13TeV.00349309.physics_Background.merge.DAOD_IDNCB.f929_m1958
data18_13TeV:data18_13TeV.00349327.physics_Background.merge.DAOD_IDNCB.f929_m1958
data18_13TeV:data18_13TeV.00349033.physics_Background.merge.DAOD_IDNCB.f926_m1958
data18_13TeV:data18_13TeV.00349114.physics_Background.merge.DAOD_IDNCB.f926_m1958
data18_13TeV:data18_13TeV.00349592.physics_Background.merge.DAOD_IDNCB.f929_m1958
data18_13TeV:data18_13TeV.00349101.physics_Background.merge.DAOD_IDNCB.f926_m1958
data18_13TeV:data18_13TeV.00349334.physics_Background.merge.DAOD_IDNCB.f929_m1958
data18_13TeV:data18_13TeV.00349645.physics_Background.merge.DAOD_IDNCB.f933_m1963
data18_13TeV:data18_13TeV.00349944.physics_Background.merge.DAOD_IDNCB.f933_m1963
data18_13TeV:data18_13TeV.00349268.physics_Background.merge.DAOD_IDNCB.f929_m1958
data18_13TeV:data18_13TeV.00349646.physics_Background.merge.DAOD_IDNCB.f933_m1963
data18_13TeV:data18_13TeV.00349842.physics_Background.merge.DAOD_IDNCB.f933_m1963
data18_13TeV:data18_13TeV.00349481.physics_Background.merge.DAOD_IDNCB.f929_m1958
data18_13TeV:data18_13TeV.00349526.physics_Background.merge.DAOD_IDNCB.f929_m1958
data18_13TeV:data18_13TeV.00349451.physics_Background.merge.DAOD_IDNCB.f929_m1958
data18_13TeV:data18_13TeV.00349534.physics_Background.merge.DAOD_IDNCB.f929_m1958
data18_13TeV:data18_13TeV.00349533.physics_Background.merge.DAOD_IDNCB.f929_m1958
data18_13TeV:data18_13TeV.00349604.physics_Background.merge.DAOD_IDNCB.f929_m1958
data18_13TeV:data18_13TeV.00350067.physics_Background.merge.DAOD_IDNCB.f933_m1963
data18_13TeV:data18_13TeV.00349335.physics_Background.merge.DAOD_IDNCB.f929_m1958
data18_13TeV:data18_13TeV.00349670.physics_Background.merge.DAOD_IDNCB.f933_m1963
data18_13TeV:data18_13TeV.00349263.physics_Background.merge.DAOD_IDNCB.f927_m1958
data18_13TeV:data18_13TeV.00349582.physics_Background.merge.DAOD_IDNCB.f929_m1958
data18_13TeV:data18_13TeV.00349636.physics_Background.merge.DAOD_IDNCB.f929_m1958
data18_13TeV:data18_13TeV.00349840.physics_Background.merge.DAOD_IDNCB.f933_m1963
data18_13TeV:data18_13TeV.00349693.physics_Background.merge.DAOD_IDNCB.f933_m1963
data18_13TeV:data18_13TeV.00350842.physics_Background.merge.DAOD_IDNCB.f936_m1975
data18_13TeV:data18_13TeV.00350478.physics_Background.merge.DAOD_IDNCB.f934_m1963
data18_13TeV:data18_13TeV.00350121.physics_Background.merge.DAOD_IDNCB.f933_m1963
data18_13TeV:data18_13TeV.00350531.physics_Background.merge.DAOD_IDNCB.f934_m1963
data18_13TeV:data18_13TeV.00349498.physics_Background.merge.DAOD_IDNCB.f929_m1958
data18_13TeV:data18_13TeV.00349720.physics_Background.merge.DAOD_IDNCB.f933_m1963
data18_13TeV:data18_13TeV.00350013.physics_Background.merge.DAOD_IDNCB.f933_m1963
data18_13TeV:data18_13TeV.00349841.physics_Background.merge.DAOD_IDNCB.f933_m1963
data18_13TeV:data18_13TeV.00349977.physics_Background.merge.DAOD_IDNCB.f933_m1963
data18_13TeV:data18_13TeV.00350247.physics_Background.merge.DAOD_IDNCB.f934_m1963
data18_13TeV:data18_13TeV.00350144.physics_Background.merge.DAOD_IDNCB.f933_m1963
data18_13TeV:data18_13TeV.00350160.physics_Background.merge.DAOD_IDNCB.f934_m1963
data18_13TeV:data18_13TeV.00350479.physics_Background.merge.DAOD_IDNCB.f934_m1963
data18_13TeV:data18_13TeV.00350440.physics_Background.merge.DAOD_IDNCB.f934_m1963
data18_13TeV:data18_13TeV.00349637.physics_Background.merge.DAOD_IDNCB.f933_m1963
data18_13TeV:data18_13TeV.00354174.physics_Background.merge.DAOD_IDNCB.f941_m1990
data18_13TeV:data18_13TeV.00349692.physics_Background.merge.DAOD_IDNCB.f933_m1963
data18_13TeV:data18_13TeV.00350250.physics_Background.merge.DAOD_IDNCB.f934_m1963
data18_13TeV:data18_13TeV.00350264.physics_Background.merge.DAOD_IDNCB.f934_m1963
data18_13TeV:data18_13TeV.00350262.physics_Background.merge.DAOD_IDNCB.f934_m1963
data18_13TeV:data18_13TeV.00350275.physics_Background.merge.DAOD_IDNCB.f934_m1963
data18_13TeV:data18_13TeV.00350259.physics_Background.merge.DAOD_IDNCB.f934_m1963
data18_13TeV:data18_13TeV.00350969.physics_Background.merge.DAOD_IDNCB.f937_m1975
data18_13TeV:data18_13TeV.00350184.physics_Background.merge.DAOD_IDNCB.f934_m1963
data18_13TeV:data18_13TeV.00350361.physics_Background.merge.DAOD_IDNCB.f934_m1963
data18_13TeV:data18_13TeV.00350220.physics_Background.merge.DAOD_IDNCB.f934_m1963
data18_13TeV:data18_13TeV.00350310.physics_Background.merge.DAOD_IDNCB.f934_m1963
data18_13TeV:data18_13TeV.00351343.physics_Background.merge.DAOD_IDNCB.f937_m1975
data18_13TeV:data18_13TeV.00350788.physics_Background.merge.DAOD_IDNCB.f936_m1975
data18_13TeV:data18_13TeV.00351061.physics_Background.merge.DAOD_IDNCB.f937_m1975
data18_13TeV:data18_13TeV.00351160.physics_Background.merge.DAOD_IDNCB.f937_m1975
data18_13TeV:data18_13TeV.00350751.physics_Background.merge.DAOD_IDNCB.f936_m1975
data18_13TeV:data18_13TeV.00352246.physics_Background.merge.DAOD_IDNCB.f938_m1982
data18_13TeV:data18_13TeV.00351670.physics_Background.merge.DAOD_IDNCB.f938_m1982
data18_13TeV:data18_13TeV.00350880.physics_Background.merge.DAOD_IDNCB.f937_m1975
data18_13TeV:data18_13TeV.00350341.physics_Background.merge.DAOD_IDNCB.f934_m1963
data18_13TeV:data18_13TeV.00351426.physics_Background.merge.DAOD_IDNCB.f937_m1975
data18_13TeV:data18_13TeV.00360026.physics_Background.merge.DAOD_IDNCB.f969_m2023
data18_13TeV:data18_13TeV.00351325.physics_Background.merge.DAOD_IDNCB.f937_m1975
data18_13TeV:data18_13TeV.00351636.physics_Background.merge.DAOD_IDNCB.f938_m1982
data18_13TeV:data18_13TeV.00351223.physics_Background.merge.DAOD_IDNCB.f937_m1975
data18_13TeV:data18_13TeV.00351438.physics_Background.merge.DAOD_IDNCB.f937_m1975
data18_13TeV:data18_13TeV.00350682.physics_Background.merge.DAOD_IDNCB.f936_m1975
data18_13TeV:data18_13TeV.00350500.physics_Background.merge.DAOD_IDNCB.f934_m1963
data18_13TeV:data18_13TeV.00351550.physics_Background.merge.DAOD_IDNCB.f937_m1975
data18_13TeV:data18_13TeV.00350923.physics_Background.merge.DAOD_IDNCB.f937_m1975
data18_13TeV:data18_13TeV.00351359.physics_Background.merge.DAOD_IDNCB.f937_m1975
data18_13TeV:data18_13TeV.00351062.physics_Background.merge.DAOD_IDNCB.f937_m1975
data18_13TeV:data18_13TeV.00350675.physics_Background.merge.DAOD_IDNCB.f934_m1963
data18_13TeV:data18_13TeV.00350676.physics_Background.merge.DAOD_IDNCB.f934_m1975
data18_13TeV:data18_13TeV.00351448.physics_Background.merge.DAOD_IDNCB.f937_m1975
data18_13TeV:data18_13TeV.00351279.physics_Background.merge.DAOD_IDNCB.f937_m1975
data18_13TeV:data18_13TeV.00350749.physics_Background.merge.DAOD_IDNCB.f936_m1975
data18_13TeV:data18_13TeV.00350803.physics_Background.merge.DAOD_IDNCB.f936_m1975
data18_13TeV:data18_13TeV.00350848.physics_Background.merge.DAOD_IDNCB.f936_m1975
data18_13TeV:data18_13TeV.00351698.physics_Background.merge.DAOD_IDNCB.f938_m1982
data18_13TeV:data18_13TeV.00351449.physics_Background.merge.DAOD_IDNCB.f937_m1975
data18_13TeV:data18_13TeV.00351270.physics_Background.merge.DAOD_IDNCB.f937_m1975
data18_13TeV:data18_13TeV.00350431.physics_Background.merge.DAOD_IDNCB.f934_m1963
data18_13TeV:data18_13TeV.00351172.physics_Background.merge.DAOD_IDNCB.f937_m1975
data18_13TeV:data18_13TeV.00351296.physics_Background.merge.DAOD_IDNCB.f937_m1975
data18_13TeV:data18_13TeV.00351421.physics_Background.merge.DAOD_IDNCB.f937_m1975
data18_13TeV:data18_13TeV.00351622.physics_Background.merge.DAOD_IDNCB.f937_m1975
data18_13TeV:data18_13TeV.00351455.physics_Background.merge.DAOD_IDNCB.f937_m1975
data18_13TeV:data18_13TeV.00351450.physics_Background.merge.DAOD_IDNCB.f937_m1975
data18_13TeV:data18_13TeV.00351617.physics_Background.merge.DAOD_IDNCB.f937_m1975
data18_13TeV:data18_13TeV.00352394.physics_Background.merge.DAOD_IDNCB.f938_m1982
data18_13TeV:data18_13TeV.00358941.physics_Background.merge.DAOD_IDNCB.f964_m2023
data18_13TeV:data18_13TeV.00352494.physics_Background.merge.DAOD_IDNCB.f938_m1982
data18_13TeV:data18_13TeV.00359441.physics_Background.merge.DAOD_IDNCB.f964_m2023
data18_13TeV:data18_13TeV.00352030.physics_Background.merge.DAOD_IDNCB.f938_m1982
data18_13TeV:data18_13TeV.00351836.physics_Background.merge.DAOD_IDNCB.f938_m1982
data18_13TeV:data18_13TeV.00352301.physics_Background.merge.DAOD_IDNCB.f938_m1982
data18_13TeV:data18_13TeV.00352137.physics_Background.merge.DAOD_IDNCB.f938_m1982
data18_13TeV:data18_13TeV.00351364.physics_Background.merge.DAOD_IDNCB.f937_m1975
data18_13TeV:data18_13TeV.00352274.physics_Background.merge.DAOD_IDNCB.f938_m1982
data18_13TeV:data18_13TeV.00351671.physics_Background.merge.DAOD_IDNCB.f938_m1982
data18_13TeV:data18_13TeV.00352056.physics_Background.merge.DAOD_IDNCB.f938_m1982
data18_13TeV:data18_13TeV.00351969.physics_Background.merge.DAOD_IDNCB.f938_m1982
data18_13TeV:data18_13TeV.00352131.physics_Background.merge.DAOD_IDNCB.f938_m1982
data18_13TeV:data18_13TeV.00359717.physics_Background.merge.DAOD_IDNCB.f964_m2023
data18_13TeV:data18_13TeV.00351832.physics_Background.merge.DAOD_IDNCB.f938_m1982
data18_13TeV:data18_13TeV.00351858.physics_Background.merge.DAOD_IDNCB.f938_m1982
data18_13TeV:data18_13TeV.00352340.physics_Background.merge.DAOD_IDNCB.f938_m1982
data18_13TeV:data18_13TeV.00351894.physics_Background.merge.DAOD_IDNCB.f938_m1982
data18_13TeV:data18_13TeV.00352514.physics_Background.merge.DAOD_IDNCB.f938_m1982
data18_13TeV:data18_13TeV.00359623.physics_Background.merge.DAOD_IDNCB.f964_m2023
data18_13TeV:data18_13TeV.00351628.physics_Background.merge.DAOD_IDNCB.f937_m1975
data18_13TeV:data18_13TeV.00354396.physics_Background.merge.DAOD_IDNCB.f941_m1990
data18_13TeV:data18_13TeV.00354172.physics_Background.merge.DAOD_IDNCB.f941_m1990
data18_13TeV:data18_13TeV.00354124.physics_Background.merge.DAOD_IDNCB.f941_m1990
data18_13TeV:data18_13TeV.00354313.physics_Background.merge.DAOD_IDNCB.f941_m1990
data18_13TeV:data18_13TeV.00354311.physics_Background.merge.DAOD_IDNCB.f941_m1990
data18_13TeV:data18_13TeV.00354176.physics_Background.merge.DAOD_IDNCB.f941_m1990
data18_13TeV:data18_13TeV.00352123.physics_Background.merge.DAOD_IDNCB.f938_m1982
data18_13TeV:data18_13TeV.00354106.physics_Background.merge.DAOD_IDNCB.f939_m1990
data18_13TeV:data18_13TeV.00354309.physics_Background.merge.DAOD_IDNCB.f941_m1990
data18_13TeV:data18_13TeV.00352448.physics_Background.merge.DAOD_IDNCB.f938_m1982
data18_13TeV:data18_13TeV.00352512.physics_Background.merge.DAOD_IDNCB.f938_m1982
data18_13TeV:data18_13TeV.00352107.physics_Background.merge.DAOD_IDNCB.f938_m1982
data18_13TeV:data18_13TeV.00354312.physics_Background.merge.DAOD_IDNCB.f941_m1990
data18_13TeV:data18_13TeV.00352207.physics_Background.merge.DAOD_IDNCB.f938_m1982
data18_13TeV:data18_13TeV.00354186.physics_Background.merge.DAOD_IDNCB.f941_m1990
data18_13TeV:data18_13TeV.00352436.physics_Background.merge.DAOD_IDNCB.f938_m1982
data18_13TeV:data18_13TeV.00354175.physics_Background.merge.DAOD_IDNCB.f941_m1990
data18_13TeV:data18_13TeV.00354314.physics_Background.merge.DAOD_IDNCB.f941_m1990
data18_13TeV:data18_13TeV.00354107.physics_Background.merge.DAOD_IDNCB.f939_m1990
data18_13TeV:data18_13TeV.00355330.physics_Background.merge.DAOD_IDNCB.f943_m1996
data18_13TeV:data18_13TeV.00355259.physics_Background.merge.DAOD_IDNCB.f943_m1996
data18_13TeV:data18_13TeV.00354476.physics_Background.merge.DAOD_IDNCB.f941_m1990
data18_13TeV:data18_13TeV.00355816.physics_Background.merge.DAOD_IDNCB.f950_m2002
data18_13TeV:data18_13TeV.00358215.physics_Background.merge.DAOD_IDNCB.f961_m2018
data18_13TeV:data18_13TeV.00358501.physics_Background.merge.DAOD_IDNCB.f961_m2018
data18_13TeV:data18_13TeV.00358541.physics_Background.merge.DAOD_IDNCB.f961_m2018
data18_13TeV:data18_13TeV.00354494.physics_Background.merge.DAOD_IDNCB.f941_m1990
data18_13TeV:data18_13TeV.00355181.physics_Background.merge.DAOD_IDNCB.f943_m1996
data18_13TeV:data18_13TeV.00355529.physics_Background.merge.DAOD_IDNCB.f948_m2002
data18_13TeV:data18_13TeV.00354359.physics_Background.merge.DAOD_IDNCB.f941_m1990
data18_13TeV:data18_13TeV.00354601.physics_Background.merge.DAOD_IDNCB.f943_m1996
data18_13TeV:data18_13TeV.00354315.physics_Background.merge.DAOD_IDNCB.f941_m1990
data18_13TeV:data18_13TeV.00355273.physics_Background.merge.DAOD_IDNCB.f943_m1996
data18_13TeV:data18_13TeV.00359541.physics_Background.merge.DAOD_IDNCB.f964_m2023
data18_13TeV:data18_13TeV.00360533.physics_Background.merge.DAOD_IDNCB.f971_m2023
data18_13TeV:data18_13TeV.00356177.physics_Background.merge.DAOD_IDNCB.f956_m2007
data18_13TeV:data18_13TeV.00355053.physics_Background.merge.DAOD_IDNCB.f943_m1996
data18_13TeV:data18_13TeV.00355276.physics_Background.merge.DAOD_IDNCB.f943_m1996
data18_13TeV:data18_13TeV.00354893.physics_Background.merge.DAOD_IDNCB.f943_m1996
data18_13TeV:data18_13TeV.00354617.physics_Background.merge.DAOD_IDNCB.f943_m1996
data18_13TeV:data18_13TeV.00361479.physics_Background.merge.DAOD_IDNCB.f972_m2028
data18_13TeV:data18_13TeV.00356259.physics_Background.merge.DAOD_IDNCB.f956_m2007
data18_13TeV:data18_13TeV.00357750.physics_Background.merge.DAOD_IDNCB.f958_m2013
data18_13TeV:data18_13TeV.00357884.physics_Background.merge.DAOD_IDNCB.f961_m2018
data18_13TeV:data18_13TeV.00359678.physics_Background.merge.DAOD_IDNCB.f964_m2023
data18_13TeV:data18_13TeV.00356095.physics_Background.merge.DAOD_IDNCB.f950_m2007
data18_13TeV:data18_13TeV.00355848.physics_Background.merge.DAOD_IDNCB.f950_m2002
data18_13TeV:data18_13TeV.00354944.physics_Background.merge.DAOD_IDNCB.f943_m1996
data18_13TeV:data18_13TeV.00359471.physics_Background.merge.DAOD_IDNCB.f964_m2023
data18_13TeV:data18_13TeV.00359124.physics_Background.merge.DAOD_IDNCB.f964_m2023
data18_13TeV:data18_13TeV.00355109.physics_Background.merge.DAOD_IDNCB.f943_m1996
data18_13TeV:data18_13TeV.00357451.physics_Background.merge.DAOD_IDNCB.f958_m2013
data18_13TeV:data18_13TeV.00358965.physics_Background.merge.DAOD_IDNCB.f964_m2023
data18_13TeV:data18_13TeV.00355861.physics_Background.merge.DAOD_IDNCB.f950_m2007
data18_13TeV:data18_13TeV.00358096.physics_Background.merge.DAOD_IDNCB.f961_m2018
data18_13TeV:data18_13TeV.00360528.physics_Background.merge.DAOD_IDNCB.f971_m2023
data18_13TeV:data18_13TeV.00360129.physics_Background.merge.DAOD_IDNCB.f969_m2023
data18_13TeV:data18_13TeV.00355224.physics_Background.merge.DAOD_IDNCB.f943_m1996
data18_13TeV:data18_13TeV.00355089.physics_Background.merge.DAOD_IDNCB.f943_m1996
data18_13TeV:data18_13TeV.00355468.physics_Background.merge.DAOD_IDNCB.f948_m2002
data18_13TeV:data18_13TeV.00357962.physics_Background.merge.DAOD_IDNCB.f961_m2018
data18_13TeV:data18_13TeV.00355841.physics_Background.merge.DAOD_IDNCB.f950_m2002
data18_13TeV:data18_13TeV.00357280.physics_Background.merge.DAOD_IDNCB.f958_m2013
data18_13TeV:data18_13TeV.00355995.physics_Background.merge.DAOD_IDNCB.f950_m2007
data18_13TeV:data18_13TeV.00355261.physics_Background.merge.DAOD_IDNCB.f943_m1996
data18_13TeV:data18_13TeV.00359735.physics_Background.merge.DAOD_IDNCB.f964_m2023
data18_13TeV:data18_13TeV.00358175.physics_Background.merge.DAOD_IDNCB.f961_m2018
data18_13TeV:data18_13TeV.00355446.physics_Background.merge.DAOD_IDNCB.f948_m1996
data18_13TeV:data18_13TeV.00357887.physics_Background.merge.DAOD_IDNCB.f961_m2018
data18_13TeV:data18_13TeV.00355331.physics_Background.merge.DAOD_IDNCB.f948_m1996
data18_13TeV:data18_13TeV.00359586.physics_Background.merge.DAOD_IDNCB.f964_m2023
data18_13TeV:data18_13TeV.00355983.physics_Background.merge.DAOD_IDNCB.f950_m2007
data18_13TeV:data18_13TeV.00357006.physics_Background.merge.DAOD_IDNCB.f956_m2007
data18_13TeV:data18_13TeV.00354602.physics_Background.merge.DAOD_IDNCB.f943_m1996
data18_13TeV:data18_13TeV.00359170.physics_Background.merge.DAOD_IDNCB.f964_m2023
data18_13TeV:data18_13TeV.00355877.physics_Background.merge.DAOD_IDNCB.f950_m2007
data18_13TeV:data18_13TeV.00355754.physics_Background.merge.DAOD_IDNCB.f950_m2002
data18_13TeV:data18_13TeV.00357409.physics_Background.merge.DAOD_IDNCB.f958_m2013
data18_13TeV:data18_13TeV.00359472.physics_Background.merge.DAOD_IDNCB.f964_m2023
data18_13TeV:data18_13TeV.00355474.physics_Background.merge.DAOD_IDNCB.f948_m1996
data18_13TeV:data18_13TeV.00359310.physics_Background.merge.DAOD_IDNCB.f964_m2023
data18_13TeV:data18_13TeV.00355544.physics_Background.merge.DAOD_IDNCB.f950_m2002
data18_13TeV:data18_13TeV.00358516.physics_Background.merge.DAOD_IDNCB.f961_m2018
data18_13TeV:data18_13TeV.00355650.physics_Background.merge.DAOD_IDNCB.f950_m2002
data18_13TeV:data18_13TeV.00356077.physics_Background.merge.DAOD_IDNCB.f950_m2007
data18_13TeV:data18_13TeV.00357355.physics_Background.merge.DAOD_IDNCB.f958_m2013
data18_13TeV:data18_13TeV.00357283.physics_Background.merge.DAOD_IDNCB.f958_m2013
data18_13TeV:data18_13TeV.00355260.physics_Background.merge.DAOD_IDNCB.f943_m1996
data18_13TeV:data18_13TeV.00357679.physics_Background.merge.DAOD_IDNCB.f958_m2013
data18_13TeV:data18_13TeV.00356205.physics_Background.merge.DAOD_IDNCB.f956_m2007
data18_13TeV:data18_13TeV.00354600.physics_Background.merge.DAOD_IDNCB.f943_m1996
data18_13TeV:data18_13TeV.00357539.physics_Background.merge.DAOD_IDNCB.f958_m2013
data18_13TeV:data18_13TeV.00357885.physics_Background.merge.DAOD_IDNCB.f961_m2018
data18_13TeV:data18_13TeV.00357077.physics_Background.merge.DAOD_IDNCB.f956_m2007
data18_13TeV:data18_13TeV.00358533.physics_Background.merge.DAOD_IDNCB.f961_m2018
data18_13TeV:data18_13TeV.00357772.physics_Background.merge.DAOD_IDNCB.f958_m2018
data18_13TeV:data18_13TeV.00359010.physics_Background.merge.DAOD_IDNCB.f964_m2023
data18_13TeV:data18_13TeV.00359677.physics_Background.merge.DAOD_IDNCB.f964_m2023
data18_13TeV:data18_13TeV.00359286.physics_Background.merge.DAOD_IDNCB.f964_m2023
data18_13TeV:data18_13TeV.00358499.physics_Background.merge.DAOD_IDNCB.f961_m2018
data18_13TeV:data18_13TeV.00359058.physics_Background.merge.DAOD_IDNCB.f964_m2023
data18_13TeV:data18_13TeV.00358985.physics_Background.merge.DAOD_IDNCB.f964_m2023
data18_13TeV:data18_13TeV.00359823.physics_Background.merge.DAOD_IDNCB.f964_m2023
data18_13TeV:data18_13TeV.00355389.physics_Background.merge.DAOD_IDNCB.f948_m1996
data18_13TeV:data18_13TeV.00357500.physics_Background.merge.DAOD_IDNCB.f958_m2013
data18_13TeV:data18_13TeV.00360209.physics_Background.merge.DAOD_IDNCB.f969_m2023
data18_13TeV:data18_13TeV.00356250.physics_Background.merge.DAOD_IDNCB.f956_m2007
data18_13TeV:data18_13TeV.00359872.physics_Background.merge.DAOD_IDNCB.f969_m2023
data18_13TeV:data18_13TeV.00359191.physics_Background.merge.DAOD_IDNCB.f964_m2023
data18_13TeV:data18_13TeV.00355309.physics_Background.merge.DAOD_IDNCB.f943_m1996
data18_13TeV:data18_13TeV.00357292.physics_Background.merge.DAOD_IDNCB.f958_m2013
data18_13TeV:data18_13TeV.00355823.physics_Background.merge.DAOD_IDNCB.f950_m2002
data18_13TeV:data18_13TeV.00358577.physics_Background.merge.DAOD_IDNCB.f961_m2018
data18_13TeV:data18_13TeV.00354618.physics_Background.merge.DAOD_IDNCB.f943_m1996
data18_13TeV:data18_13TeV.00358115.physics_Background.merge.DAOD_IDNCB.f961_m2018
data18_13TeV:data18_13TeV.00355310.physics_Background.merge.DAOD_IDNCB.f943_m1996
data18_13TeV:data18_13TeV.00357076.physics_Background.merge.DAOD_IDNCB.f956_m2007
data18_13TeV:data18_13TeV.00357821.physics_Background.merge.DAOD_IDNCB.f961_m2018
data18_13TeV:data18_13TeV.00357886.physics_Background.merge.DAOD_IDNCB.f961_m2018
data18_13TeV:data18_13TeV.00355008.physics_Background.merge.DAOD_IDNCB.f943_m1996
data18_13TeV:data18_13TeV.00359593.physics_Background.merge.DAOD_IDNCB.f964_m2023
data18_13TeV:data18_13TeV.00355416.physics_Background.merge.DAOD_IDNCB.f948_m1996
data18_13TeV:data18_13TeV.00359355.physics_Background.merge.DAOD_IDNCB.f964_m2023
data18_13TeV:data18_13TeV.00360161.physics_Background.merge.DAOD_IDNCB.f969_m2023
data18_13TeV:data18_13TeV.00358031.physics_Background.merge.DAOD_IDNCB.f961_m2018
data18_13TeV:data18_13TeV.00355563.physics_Background.merge.DAOD_IDNCB.f950_m2002
data18_13TeV:data18_13TeV.00358656.physics_Background.merge.DAOD_IDNCB.f961_m2023
data18_13TeV:data18_13TeV.00357050.physics_Background.merge.DAOD_IDNCB.f956_m2007
data18_13TeV:data18_13TeV.00354863.physics_Background.merge.DAOD_IDNCB.f943_m1996
data18_13TeV:data18_13TeV.00358395.physics_Background.merge.DAOD_IDNCB.f961_m2018
data18_13TeV:data18_13TeV.00355521.physics_Background.merge.DAOD_IDNCB.f948_m1996
data18_13TeV:data18_13TeV.00359056.physics_Background.merge.DAOD_IDNCB.f964_m2023
data18_13TeV:data18_13TeV.00356124.physics_Background.merge.DAOD_IDNCB.f950_m2007
data18_13TeV:data18_13TeV.00361624.physics_Background.merge.DAOD_IDNCB.f972_m2028
data18_13TeV:data18_13TeV.00357068.physics_Background.merge.DAOD_IDNCB.f956_m2007
data18_13TeV:data18_13TeV.00357293.physics_Background.merge.DAOD_IDNCB.f958_m2013
data18_13TeV:data18_13TeV.00359279.physics_Background.merge.DAOD_IDNCB.f964_m2023
data18_13TeV:data18_13TeV.00355599.physics_Background.merge.DAOD_IDNCB.f950_m2002
data18_13TeV:data18_13TeV.00355258.physics_Background.merge.DAOD_IDNCB.f943_m1996
data18_13TeV:data18_13TeV.00358300.physics_Background.merge.DAOD_IDNCB.f961_m2018
data18_13TeV:data18_13TeV.00357067.physics_Background.merge.DAOD_IDNCB.f956_m2007
data18_13TeV:data18_13TeV.00358333.physics_Background.merge.DAOD_IDNCB.f961_m2018
data18_13TeV:data18_13TeV.00355322.physics_Background.merge.DAOD_IDNCB.f943_m1996
data18_13TeV:data18_13TeV.00358233.physics_Background.merge.DAOD_IDNCB.f961_m2018
data18_13TeV:data18_13TeV.00357620.physics_Background.merge.DAOD_IDNCB.f958_m2013
data18_13TeV:data18_13TeV.00359171.physics_Background.merge.DAOD_IDNCB.f964_m2023
data18_13TeV:data18_13TeV.00356108.physics_Background.merge.DAOD_IDNCB.f950_m2007
data18_13TeV:data18_13TeV.00357672.physics_Background.merge.DAOD_IDNCB.f958_m2013
data18_13TeV:data18_13TeV.00357713.physics_Background.merge.DAOD_IDNCB.f958_m2018
data18_13TeV:data18_13TeV.00355651.physics_Background.merge.DAOD_IDNCB.f950_m2002
data18_13TeV:data18_13TeV.00357193.physics_Background.merge.DAOD_IDNCB.f958_m2013
data18_13TeV:data18_13TeV.00360244.physics_Background.merge.DAOD_IDNCB.f969_m2023
data18_13TeV:data18_13TeV.00354826.physics_Background.merge.DAOD_IDNCB.f943_m1996
data18_13TeV:data18_13TeV.00358325.physics_Background.merge.DAOD_IDNCB.f961_m2018
data18_13TeV:data18_13TeV.00358615.physics_Background.merge.DAOD_IDNCB.f961_m2018
data18_13TeV:data18_13TeV.00360063.physics_Background.merge.DAOD_IDNCB.f969_m2023
data18_13TeV:data18_13TeV.00361727.physics_Background.merge.DAOD_IDNCB.f979_m2028
data18_13TeV:data18_13TeV.00361732.physics_Background.merge.DAOD_IDNCB.f979_m2028
data18_13TeV:data18_13TeV.00359766.physics_Background.merge.DAOD_IDNCB.f964_m2023
data18_13TeV:data18_13TeV.00359398.physics_Background.merge.DAOD_IDNCB.f964_m2023
data18_13TeV:data18_13TeV.00360306.physics_Background.merge.DAOD_IDNCB.f969_m2023
data18_13TeV:data18_13TeV.00358939.physics_Background.merge.DAOD_IDNCB.f964_m2023
data18_13TeV:data18_13TeV.00361738.physics_Background.merge.DAOD_IDNCB.f988_m2028
data18_13TeV:data18_13TeV.00360527.physics_Background.merge.DAOD_IDNCB.f971_m2023
data18_13TeV:data18_13TeV.00362354.physics_Background.merge.DAOD_IDNCB.f993_m2035
data18_13TeV:data18_13TeV.00363561.physics_Background.merge.DAOD_IDNCB.f1001_m2040
data18_13TeV:data18_13TeV.00362345.physics_Background.merge.DAOD_IDNCB.f988_m2035
data18_13TeV:data18_13TeV.00362550.physics_Background.merge.DAOD_IDNCB.f993_m2035
data18_13TeV:data18_13TeV.00363400.physics_Background.merge.DAOD_IDNCB.f997_m2035
data18_13TeV:data18_13TeV.00364097.physics_Background.merge.DAOD_IDNCB.f1002_m2040
data18_13TeV:data18_13TeV.00360555.physics_Background.merge.DAOD_IDNCB.f971_m2023
data18_13TeV:data18_13TeV.00360551.physics_Background.merge.DAOD_IDNCB.f971_m2023
data18_13TeV:data18_13TeV.00363710.physics_Background.merge.DAOD_IDNCB.f1001_m2040
data18_13TeV:data18_13TeV.00362552.physics_Background.merge.DAOD_IDNCB.f993_m2035
data18_13TeV:data18_13TeV.00360348.physics_Background.merge.DAOD_IDNCB.f969_m2023
data18_13TeV:data18_13TeV.00363824.physics_Background.merge.DAOD_IDNCB.f1002_m2040
data18_13TeV:data18_13TeV.00364030.physics_Background.merge.DAOD_IDNCB.f1002_m2040
data18_13TeV:data18_13TeV.00363947.physics_Background.merge.DAOD_IDNCB.f1002_m2040
data18_13TeV:data18_13TeV.00361795.physics_Background.merge.DAOD_IDNCB.f988_m2028
data18_13TeV:data18_13TeV.00362139.physics_Background.merge.DAOD_IDNCB.f988_m2028
data18_13TeV:data18_13TeV.00363659.physics_Background.merge.DAOD_IDNCB.f1001_m2040
data18_13TeV:data18_13TeV.00363738.physics_Background.merge.DAOD_IDNCB.f1002_m2040
data18_13TeV:data18_13TeV.00361862.physics_Background.merge.DAOD_IDNCB.f988_m2028
data18_13TeV:data18_13TeV.00362265.physics_Background.merge.DAOD_IDNCB.f988_m2028
data18_13TeV:data18_13TeV.00363129.physics_Background.merge.DAOD_IDNCB.f993_m2035
data18_13TeV:data18_13TeV.00363391.physics_Background.merge.DAOD_IDNCB.f997_m2035
data18_13TeV:data18_13TeV.00361635.physics_Background.merge.DAOD_IDNCB.f979_m2028
data18_13TeV:data18_13TeV.00360309.physics_Background.merge.DAOD_IDNCB.f969_m2023
data18_13TeV:data18_13TeV.00360293.physics_Background.merge.DAOD_IDNCB.f969_m2023
data18_13TeV:data18_13TeV.00361689.physics_Background.merge.DAOD_IDNCB.f979_m2028
data18_13TeV:data18_13TeV.00364098.physics_Background.merge.DAOD_IDNCB.f1002_m2040
data18_13TeV:data18_13TeV.00362776.physics_Background.merge.DAOD_IDNCB.f993_m2035
data18_13TeV:data18_13TeV.00363262.physics_Background.merge.DAOD_IDNCB.f997_m2035
data18_13TeV:data18_13TeV.00362297.physics_Background.merge.DAOD_IDNCB.f988_m2028
data18_13TeV:data18_13TeV.00363096.physics_Background.merge.DAOD_IDNCB.f993_m2035
data18_13TeV:data18_13TeV.00361898.physics_Background.merge.DAOD_IDNCB.f988_m2028
data18_13TeV:data18_13TeV.00362445.physics_Background.merge.DAOD_IDNCB.f993_m2035
data18_13TeV:data18_13TeV.00360402.physics_Background.merge.DAOD_IDNCB.f969_m2023
data18_13TeV:data18_13TeV.00361694.physics_Background.merge.DAOD_IDNCB.f979_m2028
data18_13TeV:data18_13TeV.00360373.physics_Background.merge.DAOD_IDNCB.f969_m2023
data18_13TeV:data18_13TeV.00363560.physics_Background.merge.DAOD_IDNCB.f1001_m2040
data18_13TeV:data18_13TeV.00362986.physics_Background.merge.DAOD_IDNCB.f993_m2035
data18_13TeV:data18_13TeV.00360414.physics_Background.merge.DAOD_IDNCB.f971_m2023
data18_13TeV:data18_13TeV.00363033.physics_Background.merge.DAOD_IDNCB.f993_m2035
data18_13TeV:data18_13TeV.00362204.physics_Background.merge.DAOD_IDNCB.f988_m2028
data18_13TeV:data18_13TeV.00360471.physics_Background.merge.DAOD_IDNCB.f971_m2023
data18_13TeV:data18_13TeV.00360560.physics_Background.merge.DAOD_IDNCB.f971_m2023
data18_13TeV:data18_13TeV.00362661.physics_Background.merge.DAOD_IDNCB.f993_m2035
data18_13TeV:data18_13TeV.00363198.physics_Background.merge.DAOD_IDNCB.f997_m2035
data18_13TeV:data18_13TeV.00362388.physics_Background.merge.DAOD_IDNCB.f993_m2035
data18_13TeV:data18_13TeV.00361696.physics_Background.merge.DAOD_IDNCB.f979_m2028
data18_13TeV:data18_13TeV.00362619.physics_Background.merge.DAOD_IDNCB.f993_m2035
data18_13TeV:data18_13TeV.00364485.physics_Background.merge.DAOD_IDNCB.f1002_m2040
data18_13TeV:data18_13TeV.00362353.physics_Background.merge.DAOD_IDNCB.f988_m2028
data18_13TeV:data18_13TeV.00363910.physics_Background.merge.DAOD_IDNCB.f1002_m2040
data18_13TeV:data18_13TeV.00361724.physics_Background.merge.DAOD_IDNCB.f979_m2028
data18_13TeV:data18_13TeV.00361695.physics_Background.merge.DAOD_IDNCB.f979_m2028
data18_13TeV:data18_13TeV.00361844.physics_Background.merge.DAOD_IDNCB.f988_m2028
data18_13TeV:data18_13TeV.00364214.physics_Background.merge.DAOD_IDNCB.f1002_m2040
data18_13TeV:data18_13TeV.00364292.physics_Background.merge.DAOD_IDNCB.f1002_m2040
data18_13TeV:data18_13TeV.00363979.physics_Background.merge.DAOD_IDNCB.f1002_m2040
data18_13TeV:data18_13TeV.00362122.physics_Background.merge.DAOD_IDNCB.f988_m2028
data18_13TeV:data18_13TeV.00364076.physics_Background.merge.DAOD_IDNCB.f1002_m2040
data18_13TeV:data18_13TeV.00361718.physics_Background.merge.DAOD_IDNCB.f979_m2028
data18_13TeV:data18_13TeV.00363830.physics_Background.merge.DAOD_IDNCB.f1002_m2040
data18_13TeV:data18_13TeV.00363827.physics_Background.merge.DAOD_IDNCB.f1002_m2040
data18_13TeV:data18_13TeV.00361906.physics_Background.merge.DAOD_IDNCB.f988_m2028
data18_13TeV:data18_13TeV.00361690.physics_Background.merge.DAOD_IDNCB.f979_m2028
data18_13TeV:data18_13TeV.00363664.physics_Background.merge.DAOD_IDNCB.f1001_m2040
data18_13TeV:data18_13TeV.00364160.physics_Background.merge.DAOD_IDNCB.f1002_m2040
data18_13TeV:data18_13TeV.00359918.physics_Background.merge.DAOD_IDNCB.f969_m2023
